labels = ['100', '500', '1000', '2000']
seq5000 = [2.564, 64.025, 256.87, 1044.512]
par5000 = [0.283, 2.511, 9.49, 18.861]

seq100 = [2.61, 64.21, 257.12, 1047.94]
par100 = [0.45, 2.8, 9.7, 19.38]

speedup5000 = [9.03, 25.50, 27.07, 55.38]
speedup100 = [5.80, 22.93, 26.51, 54.07]